/Users/pospisil/Documents/school/AIN3 SE/Open Source-basierte Softwareentwicklung/Praktikum/Aufgabenblatt 05/MavenProjekt/src/main/java/de/hfu/integration/service/ResidentService.java
/Users/pospisil/Documents/school/AIN3 SE/Open Source-basierte Softwareentwicklung/Praktikum/Aufgabenblatt 05/MavenProjekt/src/main/java/de/hfu/unit/Util.java
/Users/pospisil/Documents/school/AIN3 SE/Open Source-basierte Softwareentwicklung/Praktikum/Aufgabenblatt 05/MavenProjekt/src/main/java/de/hfu/App.java
/Users/pospisil/Documents/school/AIN3 SE/Open Source-basierte Softwareentwicklung/Praktikum/Aufgabenblatt 05/MavenProjekt/src/main/java/de/hfu/unit/Queue.java
/Users/pospisil/Documents/school/AIN3 SE/Open Source-basierte Softwareentwicklung/Praktikum/Aufgabenblatt 05/MavenProjekt/src/main/java/de/hfu/integration/domain/Resident.java
/Users/pospisil/Documents/school/AIN3 SE/Open Source-basierte Softwareentwicklung/Praktikum/Aufgabenblatt 05/MavenProjekt/src/main/java/de/hfu/integration/repository/ResidentRepository.java
/Users/pospisil/Documents/school/AIN3 SE/Open Source-basierte Softwareentwicklung/Praktikum/Aufgabenblatt 05/MavenProjekt/src/main/java/de/hfu/integration/service/ResidentServiceException.java
/Users/pospisil/Documents/school/AIN3 SE/Open Source-basierte Softwareentwicklung/Praktikum/Aufgabenblatt 05/MavenProjekt/src/main/java/de/hfu/integration/service/BaseResidentService.java
